﻿[
  {
    "diametr": 1160,
    "height": 890,
    "thickness": 80,
    "name": "КС10.9",
    "gost": "ГОСТ 8020-90",
    "type": "ring"

  },
  {
    "diametr": 1160,
    "height": 590,
    "thickness": 80,
    "name": "КС10.6",
    "gost": "ГОСТ 8020-90",
    "type": "ring"
  },
  {
    "diametr": 1160,
    "height": 290,
    "thickness": 80,
    "name": "КС10.3",
    "gost": "ГОСТ 8020-90",
    "type": "ring"
  },


  {
    "diametr": 840,
    "height": 290,
    "thickness": 70,
    "name": "КС7.3",
    "gost": "ГОСТ 8020-90",
    "type": "ring"
  },

  {
    "diametr": 840,
    "height": 890,
    "thickness": 70,
    "name": "КС7.9",
    "gost": "ГОСТ 8020-90",
    "type": "ring"
  },

  {
    "diametr": 1410,
    "height": 890,
    "thickness": 80,
    "name": "КС13.9",
    "gost": "ГОСТ 8020-90",
    "type": "ring"
  },

  {
    "diametr": 1680,
    "height": 890,
    "thickness": 90,
    "name": "КС15.9",
    "gost": "ГОСТ 8020-90",
    "type": "ring"
  },

  {
    "diametr": 1680,
    "height": 590,
    "thickness": 90,
    "name": "КС15.6",
    "gost": "ГОСТ 8020-90",
    "type": "ring"
  },

  {
    "diametr": 2200,
    "height": 590,
    "thickness": 100,
    "name": "КС20.6",
    "gost": "ГОСТ 8020-90",
    "type": "ring"
  },

  {
    "diametr": 2200,
    "height": 890,
    "thickness": 100,
    "name": "КС20.9",
    "gost": "ГОСТ 8020-90",
    "type": "ring"
  },

  {
    "diametr": 2200,
    "height": 1190,
    "thickness": 100,
    "name": "КС20.12",
    "gost": "ГОСТ 8020-90",
    "type": "ring"
  },

  {
    "diametr": 2700,
    "height": 1190,
    "thickness": 100,
    "name": "КС25.12",
    "gost": "ГОСТ 8020-90",
    "type": "ring"
  },


  {
    "diametr": 1160,
    "height": 1270,
    "thickness": 80,
    "bottomThickness": 140,
    "name": "КДК10",
    "gost": "ГОСТ 8020-90",
    "type": "working chamber"
  },

  {
    "diametr": 1160,
    "height": 2410,
    "thickness": 80,
    "bottomThickness": 160,
    "name": "КФК10",
    "gost": "ГОСТ 8020-90",
    "type": "working chamber"
  },

  {
    "diametr": 1410,
    "height": 2630,
    "thickness": 80,
    "bottomThickness": 180,
    "name": "КФК13",
    "gost": "ГОСТ 8020-90",
    "type": "working chamber"
  },

  {
    "diametr": 1680,
    "height": 2870,
    "thickness": 90,
    "bottomThickness": 190,
    "name": "КФК15",
    "gost": "ГОСТ 8020-90",
    "type": "working chamber"
  },

  {
    "diametr": 2200,
    "height": 3110,
    "thickness": 100,
    "bottomThickness": 210,
    "name": "КФК20",
    "gost": "ГОСТ 8020-90",
    "type": "working chamber"
  },

  {
    "diametr": 960,
    "height": 1550,
    "thickness": 70,
    "bottomThickness": 175,
    "name": "КЛВ8",
    "gost": "ГОСТ 8020-90",
    "type": "working chamber"
  },

  {
    "diametr": 1160,
    "height": 1800,
    "thickness": 80,
    "bottomThickness": 170,
    "name": "КЛК10",
    "gost": "ГОСТ 8020-90",
    "type": "working chamber"
  },

  {
    "diametr": 1410,
    "height": 1800,
    "thickness": 80,
    "bottomThickness": 180,
    "name": "КЛК13",
    "gost": "ГОСТ 8020-90",
    "type": "working chamber"
  },

  {
    "diametr": 1680,
    "height": 1980,
    "thickness": 90,
    "bottomThickness": 210,
    "name": "КЛК15",
    "gost": "ГОСТ 8020-90",
    "type": "working chamber"
  },

  {
    "diametr": 1410,
    "height": 1980,
    "thickness": 70,
    "name": "КВГ13",
    "bottomThickness": 140,
    "gost": "ГОСТ 8020-90",
    "type": "working chamber"
  },

  {
    "diametr": 1680,
    "height": 1980,
    "thickness": 80,
    "name": "КВГ15",
    "bottomThickness": 140,
    "gost": "ГОСТ 8020-90",
    "type": "working chamber"
  },


  {
    "diametr": 2200,
    "height": 1980,
    "thickness": 100,
    "bottomThickness": 140,
    "name": "КВГ20",
    "gost": "ГОСТ 8020-90",
    "type": "working chamber"
  },

  {
    "diametr": 2700,
    "height": 1980,
    "thickness": 100,
    "bottomThickness": 140,
    "name": "КВГ25",
    "gost": "ГОСТ 8020-90",
    "type": "working chamber"
  },

  {
    "diametr": 840,
    "height": 70,
    "thickness": 130,
    "name": "КО6",
    "gost": "ГОСТ 8020-90",
    "type": "support ring"
  },


  {
    "diametr": 1000,
    "length": 1700,
    "width": 1700,
    "thickness": 150,
    "name": "ПО10",
    "gost": "ГОСТ 8020-90",
    "type": "base plate"
  },

  {
    "holeDiametr": 580,
    "length": 2500,
    "width": 1750,
    "thickness": 220,
    "name": "ПД6",
    "gost": "ГОСТ 8020-90",
    "type": "road plate"
  },

  {
    "holeDiametr": 1000,
    "length": 2800,
    "width": 2000,
    "thickness": 220,
    "name": "ПД10",
    "gost": "ГОСТ 8020-90",
    "type": "road plate"
  },

  {
    "diametr": 1500,
    "thickness": 100,
    "name": "ПН10",
    "gost": "ГОСТ 8020-90",
    "type": "bottom plate"
  },

  {
    "diametr": 2000,
    "thickness": 120,
    "name": "ПН15",
    "gost": "ГОСТ 8020-90",
    "type": "bottom plate"
  },

  {
    "diametr": 2500,
    "thickness": 120,
    "name": "ПН20",
    "gost": "ГОСТ 8020-90",
    "type": "bottom plate"
  },


  {
    "diametr": 1000,
    "holeDiametr": 580,
    "thickness": 170,
    "name": "1ПП8",
    "gost": "ГОСТ 8020-90",
    "type": "floor slab"
  },

  {
    "diametr": 1000,
    "holeDiametr": 800,
    "thickness": 170,
    "name": "2ПП8",
    "gost": "ГОСТ 8020-90",
    "type": "floor slab"
  },

  {
    "diametr": 1160,
    "holeDiametr": 700,
    "holeOffset": 150,
    "thickness": 150,
    "name": "ПП10",
    "gost": "ГОСТ 8020-90",
    "type": "floor slab"
  },

  {
    "diametr": 1410,
    "holeDiametr": 700,
    "holeOffset": 275,
    "thickness": 150,
    "name": "ПП13",
    "gost": "ГОСТ 8020-90",
    "type": "floor slab"
  },


  {
    "diametr": 1680,
    "holeDiametr": 700,
    "holeOffset": 400,
    "thickness": 150,
    "name": "1ПП15",
    "gost": "ГОСТ 8020-90",
    "type": "floor slab"
  },


  {
    "diametr": 1680,
    "holeDiametr": 700,
    "holeOffset": 200,
    "thickness": 150,
    "name": "2ПП15",
    "gost": "ГОСТ 8020-90",
    "type": "floor slab"
  },


  {
    "diametr": 1680,
    "holeDiametr": 1000,
    "holeOffset": 250,
    "thickness": 150,
    "name": "3ПП15",
    "gost": "ГОСТ 8020-90",
    "type": "floor slab"
  },

  {
    "diametr": 2200,
    "holeDiametr": 700,
    "holeOffset": 200,
    "thickness": 160,
    "name": "1ПП20",
    "gost": "ГОСТ 8020-90",
    "type": "floor slab"
  },

  {
    "diametr": 2200,
    "holeDiametr": 1000,
    "holeOffset": 500,
    "thickness": 160,
    "name": "2ПП20",
    "gost": "ГОСТ 8020-90",
    "type": "floor slab"
  },


  {
    "diametr": 2200,
    "holeDiametr": 700,
    "holeOffset": 650,
    "thickness": 160,
    "name": "3ПП20",
    "gost": "ГОСТ 8020-90",
    "type": "floor slab"
  },

  {
    "diametr": 2700,
    "holeDiametr": 700,
    "holeOffset": 200,
    "thickness": 180,
    "name": "1ПП25",
    "gost": "ГОСТ 8020-90",
    "type": "floor slab"
  },

  {
    "diametr": 2700,
    "holeDiametr": 700,
    "holeOfset": 900,
    "thickness": 180,
    "name": "2ПП25",
    "gost": "ГОСТ 8020-90",
    "type": "floor slab"
  }
]
